<svg width="25" height="21" viewBox="0 0 25 21" xmlns="http://www.w3.org/2000/svg">
<path d="M24.6324 2.43053C23.6635 2.85695 22.6942 3.12326 21.7256 3.23022C22.8196 2.55867 23.5596 1.60993 23.9452 0.384086C22.9444 0.991577 21.8766 1.4072 20.7411 1.63115C19.7406 0.543869 18.5114 0 17.0523 0C15.6563 0 14.466 0.503601 13.4809 1.51102C12.4965 2.51839 12.0042 3.73618 12.0042 5.16454C12.0042 5.54823 12.0458 5.94279 12.1292 6.34782C10.0661 6.24124 8.13072 5.71094 6.32282 4.75688C4.51501 3.80271 2.98075 2.53151 1.72005 0.943244C1.26157 1.74255 1.03227 2.61148 1.03227 3.54952C1.03227 4.43429 1.23541 5.25521 1.64198 6.01208C2.04828 6.76882 2.59543 7.38168 3.28314 7.85078C2.47029 7.81875 1.70969 7.60017 1.00129 7.19508V7.25903C1.00129 8.50633 1.3842 9.60141 2.14994 10.5451C2.91578 11.4887 3.88225 12.0826 5.04913 12.3279C4.61147 12.445 4.16855 12.5037 3.72059 12.5037C3.42881 12.5037 3.11098 12.4771 2.76721 12.4241C3.09018 13.4579 3.68413 14.3077 4.54884 14.9744C5.41371 15.6405 6.39315 15.9839 7.48723 16.0058C5.65348 17.4766 3.56441 18.212 1.22003 18.212C0.771912 18.212 0.36567 18.1912 0.000923157 18.1483C2.34536 19.6938 4.92935 20.4666 7.75306 20.4666C9.5452 20.4666 11.228 20.1764 12.8008 19.5952C14.3745 19.0145 15.7184 18.2363 16.8334 17.2606C17.9481 16.2854 18.9094 15.1634 19.7169 13.8949C20.5243 12.6263 21.1259 11.3019 21.5222 9.92153C21.9179 8.54083 22.1159 7.158 22.1159 5.77198C22.1159 5.47347 22.1107 5.24972 22.1002 5.10041C23.0904 4.36523 23.9343 3.47497 24.6324 2.43053Z"/>
</svg>
